<?xml version="1.0" encoding="utf-8"?>
<!-- Generator: Adobe Illustrator 21.1.0, SVG Export Plug-In . SVG Version: 6.00 Build 0)  -->
<svg version="1.1" id="Warstwa_1" xmlns="http://www.w3.org/2000/svg" xmlns:xlink="http://www.w3.org/1999/xlink" x="0px" y="0px"
	 viewBox="0 0 25 60" style="enable-background:new 0 0 25 60;" xml:space="preserve">
<style type="text/css">
	.st0{fill:#696E9F;}
	.st1{fill:#FFFFFF;}
</style>
<rect x="0.2" y="12" transform="matrix(0.7071 0.7071 -0.7071 0.7071 12.6593 -5.3622)" class="st0" width="25.2" height="1.1"/>
<rect x="0.2" y="12" transform="matrix(0.7071 -0.7071 0.7071 0.7071 -5.1598 12.7431)" class="st0" width="25.2" height="1.1"/>
<rect x="0.2" y="47" transform="matrix(0.7071 0.7071 -0.7071 0.7071 37.408 4.889)" class="st1" width="25.2" height="1.1"/>
<rect x="0.2" y="47" transform="matrix(0.7071 -0.7071 0.7071 0.7071 -29.9085 22.9944)" class="st1" width="25.2" height="1.1"/>
</svg>
